{
  "name": "ChatMessage",
  "fields": [
    {
      "fieldName": "message",
      "fieldType": "String",
      "fieldValidateRules": ["required"]
    }
  ],
  "relationships": [
    {
      "relationshipType": "many-to-one",
      "otherEntityName": "user",
      "otherEntityRelationshipName": "chatMessage",
      "relationshipName": "user"
    }
  ],
  "entityTableName": "chat_message",
  "dto": "no",
  "pagination": "no",
  "service": "no",
  "jpaMetamodelFiltering": false,
  "fluentMethods": true,
  "readOnly": false,
  "embedded": false,
  "applications": ["chatter"],
  "changelogDate": "20210424125632"
}
